<svg width="24" height="24" viewBox="0 0 24 24" fill="none" xmlns="http://www.w3.org/2000/svg">
    <symbol id='edit'>
        <rect width="24" height="24" fill="#F2F2F2"/>
        <path d="M14.0005 6L14.7076 5.29289L14 4.58529L13.2929 5.29339L14.0005 6ZM6.01172 14L5.30412 13.2934L5.01172 13.5862V14H6.01172ZM17.0005 9L17.7076 9.7071L18.4147 9L17.7076 8.29289L17.0005 9ZM6.01172 17.0001H5.01172L6.01173 18.0001L6.01172 17.0001ZM13.2929 5.29339L5.30412 13.2934L6.71932 14.7066L14.7081 6.70661L13.2929 5.29339ZM9.7076 17.7071L17.7076 9.7071L16.2934 8.2929L8.29338 16.2929L9.7076 17.7071ZM17.7076 8.29289L14.7076 5.29289L13.2934 6.70711L16.2934 9.70711L17.7076 8.29289ZM5.01172 14V17.0001H7.01172V14H5.01172ZM6.01173 18.0001L9.0005 18L9.00047 16L6.0117 16.0001L6.01173 18.0001ZM9.00049 18L18.0005 18L18.0005 16L9.00048 16L9.00049 18Z" fill="#CF033F"/>
    </symbol>
</svg>

