<svg width="985" height="700" viewBox="0 0 985 700" fill="none" xmlns="http://www.w3.org/2000/svg">
<path d="M524 493L930 193L524 285L316 63V385L200 651L524 493Z" fill="#62D758" stroke="#62D758" stroke-width="97" stroke-linejoin="bevel"/>
</svg>
