<svg width="14" height="14" viewBox="0 0 14 14" fill="none" xmlns="http://www.w3.org/2000/svg">
   <symbol id="plus">
        <rect x="6" y="14" width="14" height="2" transform="rotate(-90 6 14)" fill="white"/>
        <rect y="6" width="14" height="2" fill="white"/>
   </symbol>
    <symbol id="minus">
        <rect width="14" height="2" fill="white"/>
   </symbol>
</svg>
