<svg width="25" height="16"  viewBox="0 0 25 16" fill="none" xmlns="http://www.w3.org/2000/svg">
 <symbol id="cart">
   <path
       d="M12.7609 4.97266H23.5L18.7 14.9727H5.8L1 4.97266H12.7609ZM12.7609 4.97266L9 0.972656"
       stroke="var(--color-header-main)"
       stroke-width="2"
       stroke-linejoin="bevel"
       fill="none"
    />
   </symbol>
 </svg>